// Jest Snapshot v1, https://goo.gl/fbAQLP

exports[`RestProfileScreen Rest addition confirmation renders with empty state 1`] = `
<FormScreen
  navigation={
    Object {
      "addListener": [MockFunction],
      "dispatch": [MockFunction],
      "goBack": [MockFunction],
      "navigate": [MockFunction],
      "pop": [MockFunction],
      "popToTop": [MockFunction],
      "push": [MockFunction],
      "reset": [Function],
      "setParams": [MockFunction],
      "state": Object {
        "params": Object {
          "confirmText": "Add",
        },
      },
    }
  }
  onConfirm={[Function]}
>
  <Styled(Item)
    floatingLabel={true}
  >
    <Styled(Label)>
      Name
    </Styled(Label)>
    <Styled(Input)
      onChangeText={[Function]}
      value=""
    />
  </Styled(Item)>
  <Styled(Item)
    floatingLabel={true}
  >
    <Styled(Label)>
      Description
    </Styled(Label)>
    <Styled(Input)
      multiline={true}
      numberOfLines={8}
      onChangeText={[Function]}
      value=""
    />
  </Styled(Item)>
  <Styled(Item)
    floatingLabel={true}
  >
    <Styled(Label)>
      Phone
    </Styled(Label)>
    <Styled(Input)
      onChangeText={[Function]}
      value=""
    />
  </Styled(Item)>
</FormScreen>
`;

exports[`RestProfileScreen Rest edit confirmation renders with default state 1`] = `
<FormScreen
  navigation={
    Object {
      "addListener": [MockFunction],
      "dispatch": [MockFunction],
      "goBack": [MockFunction],
      "navigate": [MockFunction],
      "pop": [MockFunction],
      "popToTop": [MockFunction],
      "push": [MockFunction],
      "reset": [Function],
      "setParams": [MockFunction],
      "state": Object {
        "params": Object {
          "confirmText": "Save",
        },
      },
    }
  }
  onConfirm={[Function]}
>
  <Styled(Item)
    floatingLabel={true}
  >
    <Styled(Label)>
      Name
    </Styled(Label)>
    <Styled(Input)
      onChangeText={[Function]}
      value="magic wok"
    />
  </Styled(Item)>
  <Styled(Item)
    floatingLabel={true}
  >
    <Styled(Label)>
      Description
    </Styled(Label)>
    <Styled(Input)
      multiline={true}
      numberOfLines={8}
      onChangeText={[Function]}
      value="soup"
    />
  </Styled(Item)>
  <Styled(Item)
    floatingLabel={true}
  >
    <Styled(Label)>
      Phone
    </Styled(Label)>
    <Styled(Input)
      onChangeText={[Function]}
      value="123"
    />
  </Styled(Item)>
</FormScreen>
`;

exports[`RestProfileScreen Sign up renders with empty state 1`] = `
<FormScreen
  navigation={
    Object {
      "addListener": [MockFunction],
      "dispatch": [MockFunction],
      "goBack": [MockFunction],
      "navigate": [MockFunction],
      "pop": [MockFunction],
      "popToTop": [MockFunction],
      "push": [MockFunction],
      "reset": [Function],
      "setParams": [MockFunction],
      "state": Object {
        "params": Object {
          "confirmText": "Next",
        },
      },
    }
  }
  onConfirm={[Function]}
>
  <Styled(Item)
    floatingLabel={true}
  >
    <Styled(Label)>
      Name
    </Styled(Label)>
    <Styled(Input)
      onChangeText={[Function]}
      value=""
    />
  </Styled(Item)>
  <Styled(Item)
    floatingLabel={true}
  >
    <Styled(Label)>
      Description
    </Styled(Label)>
    <Styled(Input)
      multiline={true}
      numberOfLines={8}
      onChangeText={[Function]}
      value=""
    />
  </Styled(Item)>
  <Styled(Item)
    floatingLabel={true}
  >
    <Styled(Label)>
      Phone
    </Styled(Label)>
    <Styled(Input)
      onChangeText={[Function]}
      value=""
    />
  </Styled(Item)>
</FormScreen>
`;
